[
  {
    "title": "Deaths in BCN",
    "description": "Three dead bodies founded in Barcelona",
    "date": 202004022
  },
  {
    "title": "Okupas",
    "description": "New occupations in Sabadell",
    "date": 202204012
  },
  {
    "title": "Ibai goes to Andorra",
    "description": "Then famous streamer Ibai will live in Andorra",
    "date": 202305004
  }
]